…
``` r
# print top 5 species from whole survey
species_list %>% group_by(trap_type) %>%                                    
  arrange(desc(species_catch))
```

    ## # A tibble: 146 × 3
    ## # Groups:   trap_type [2]
    ##    scientific_name         trap_type  species_catch
    ##    <chr>                   <chr>              <dbl>
    ##  1 Siganus sutor           UNMODIFIED         29857
    ##  2 Leptoscarus vaigiensis  UNMODIFIED          6644
    ##  3 Siganus sutor           MODIFIED            4691
    ##  4 Siganus canaliculutus   UNMODIFIED          3840
    ##  5 Lethrinus nebulosus     UNMODIFIED          3662
    ##  6 Scarus ghobban          UNMODIFIED          3333
    ##  7 Acanthurus dussumieri   UNMODIFIED          3257
    ##  8 Scarus rubroviolaceus   UNMODIFIED          2302
    ##  9 Lethrinus nebulosus     MODIFIED            2293
    ## 10 Plectorhinchus vittatus UNMODIFIED          1684
    ## # … with 136 more rows
…
