…
    ## [1]  1 38

``` r
unique(sort(fishermen_no$`No. of fishers in crew`))
```

    ##  [1]  1  2  3  4  5  6  7  8 10 12 16 18 19 20 22 23 24 34 38

``` r
df %>% filter(`No. of fishers in crew` > 7)
```

    ## # A tibble: 482 × 28
    ##    Operation_date      enumerator      landing_site BMU   fisher_id fisher_phone
    ##    <dttm>              <chr>           <chr>        <chr> <chr>     <chr>       
    ##  1 2021-05-18 00:00:00 CELESTINE N. A… MAYUNGU      MAYU… SS/MAY/S… 706822197   
    ##  2 2021-05-18 00:00:00 CELESTINE N. A… MAYUNGU      MAYU… SS/MAY/S… 706822197   
    ##  3 2021-05-18 00:00:00 CELESTINE N. A… MAYUNGU      MAYU… SS/MAY/S… 706822197   
    ##  4 2021-05-18 00:00:00 CELESTINE N. A… MAYUNGU      MAYU… SS/MAY/S… 706822197   
    ##  5 2021-05-18 00:00:00 CELESTINE N. A… MAYUNGU      MAYU… SS/MAY/S… 706822197   
    ##  6 2021-05-18 00:00:00 CELESTINE N. A… MAYUNGU      MAYU… SS/MAY/S… 706822197   
    ##  7 2021-05-18 00:00:00 CELESTINE N. A… MAYUNGU      MAYU… SS/MAY/S… 706822197   
    ##  8 2021-05-18 00:00:00 CELESTINE N. A… MAYUNGU      MAYU… SS/MAY/S… 706822197   
    ##  9 2021-11-15 00:00:00 SAIDI MKALI     KIVUKONI     TAKA… SS/TAK/C… <NA>        
    ## 10 2021-11-26 00:00:00 KITSAO KARISA   VUMA         TAKA… SS/TAK/C… 791377013   
    ## # ℹ 472 more rows
    ## # ℹ 22 more variables: household_id <chr>, trap_type <chr>,
    ## #   total_traps_collected <dbl>, date_set_dd_mm_yyyy <dttm>,
    ## #   `time_set_24hh:mm` <chr>, date_collected_dd_mm_yyyy <dttm>,
    ## #   `time_collected_24hh:mm` <chr>, total_biomass_kg <dbl>,
    ## #   take_home_weight_kg <dbl>, total_value_KES <dbl>,
    ## #   take_home_value_KES <dbl>, `No. of fishers in crew` <dbl>, …
…
